sw/esp-rv32-bridge/testlog/20220408/20220408_testlog.vcd
$timescale 1 ns $end
$scope module top $end
$var wire 1 ! VP-TXD-OUT $end
$var wire 1 " VP-RXD-IN $end
$upscope $end
$enddefinitions $end
#392050250
1!
1"
#488643250
0"
#488851500
1"
#488955750
0"
#489060000
1"
#489268500
0"
#489372500
1"
#489476750
0"
#489581000
1"
#492050250
0!
#492570250
1!
#492674250
0!
#492778250
1!
#492882250
0!
#492986250
1!
#688694750
0"
#688903250
1"
#689007500
0"
#689111500
1"
#689320000
0"
#689424250
1"
#689528250
0"
#689632500
1"
#888746750
0"
#888955000
1"
#889059250
0"
#889163500
1"
#889371750
0"
#889476000
1"
#889580250
0"
#889684500
1"
#1088798500
0"
#1089007000
1"
#1089111250
0"
#1089215250
1"
#1089423750
0"
#1089528000
1"
#1089632000
0"
#1089736250
1"
#1288850500
0"
#1288954750
1"
#1289163000
0"
#1289371500
1"
#1289579750
0"
#1289788250
1"
#1488902250
0"
#1489006500
1"
#1489215000
0"
#1489423250
1"
#1489631750
0"
#1489840000
1"
#1492403750
0!
#1492612000
1!
#1492820000
0!
#1493132000
1!
#1688954250
0"
#1689162500
1"
#1689371000
0"
#1689683500
1"
#1692329000
0!
#1692849000
1!
#1692953000
0!
#1693057000
1!
#1693161250
0!
#1693265250
1!
#2889265750
0"
#2889474000
1"
#2889578250
0"
#2889682500
1"
#2889890750
0"
#2889995000
1"
#2890099250
0"
#2890203500
1"
#3089317250
0"
#3089525750
1"
#3089629750
0"
#3089734000
1"
#3089942500
0"
#3090046500
1"
#3090150750
0"
#3090255000
1"
#3289369250
0"
#3289577500
1"
#3289681750
0"
#3289786000
1"
#3289994250
0"
#3290098500
1"
#3290202750
0"
#3290307000
1"
#3489421000
0"
#3489629500
1"
#3489733500
0"
#3489837750
1"
#3490046250
0"
#3490150250
1"
#3490254500
0"
#3490358750
1"
#3689472750
0"
#3689577000
1"
#3689785500
0"
#3689993750
1"
#3690202250
0"
#3690410500
1"
#3692828250
0!
#3693036250
1!
#3693140250
0!
#3693244500
1!
#3693452500
0!
#3693556500
1!
#3693660500
0!
#3693764500
1!
#3889524750
0"
#3889629000
1"
#3889837250
0"
#3890045750
1"
#3890254000
0"
#3890462500
1"
#3892857500
0!
#3893377500
1!
#3893481500
0!
#3893585500
1!
#3893689500
0!
#3893793500
1!
#4089576500
0"
#4089785000
1"
#4089993250
0"
#4090306000
1"
#5289888000
0"
#5290096500
1"
#5290200750
0"
#5290304750
1"
#5290513250
0"
#5290617500
1"
#5290721750
0"
#5290825750
1"
#5489939750
0"
#5490148000
1"
#5490252250
0"
#5490356500
1"
#5490564750
0"
#5490669000
1"
#5490773250
0"
#5490877500
1"
#5689991500
0"
#5690200000
1"
#5690304250
0"
#5690408250
1"
#5690616750
0"
#5690721000
1"
#5690825000
0"
#5690929250
1"
#5890043500
0"
#5890251750
1"
#5890356000
0"
#5890460250
1"
#5890668500
0"
#5890772750
1"
#5890877000
0"
#5890981250
1"
#5893460750
0!
#5893668750
1!
#5893772750
0!
#5893876750
1!
#5894085000
0!
#5894189000
1!
#5894293000
0!
#5894397000
1!
#6090095250
0"
#6090199500
1"
#6090408000
0"
#6090616250
1"
#6090824750
0"
#6091033000
1"
#6093490000
0!
#6094010000
1!
#6094114000
0!
#6094218000
1!
#6094322000
0!
#6094426000
1!
#6290147250
0"
#6290251250
1"
#6290459750
0"
#6290668250
1"
#6290876500
0"
#6291085000
1"
#6490199000
0"
#6490407500
1"
#6490615750
0"
#6490928250
1"
